{
  "personal": {
    "name": "Gabriel Lourenco",
    "jobtitle": "CEO at PLAYTRAK",
    "location": {
      "city": "Monterrey", 
      "country": "México"},
    "picture": "https://secure.gravatar.com/avatar/bd7e37a7a6decacddfcdc3b158d94b38?s=800&d=identicon",
    "bio": [
    "I love to build and manage work teams in the technology area. I am focused on developing software systems for the Casino industry 🎰  using most new solutions and tools. Agile development, DevOps, continuous integration, cloud services (AWS fan). I am working as a manager in PLAYTRAK, I start here from the beginning to a successful software development company with more than 30 excellent employees and 5.000 slots machines connected. I proudly was created amazing teamwork with exceptional people and could have developed awesome products to help our clients. I excite managing more than 800,000 lines of code with different code languages. Always ready to help you can contact me."
]
  },
  "exp": [
    { "title": "CEO @ PLAYTRAK Tracking Systems and Technologies",
      "start": "01/2015", 
      "end": "now", 
      "desc": "From the beginning to a successful software development company with more than 30 employees and 5.000 slots machines connected..."
    },
    { "title": "CTO @ Tebon Class de México",
      "start": "07/2007", 
      "end": "now", 
      "desc": "Managing technical teams, design enterprise LAN solutions for Casinos with more than 6.000 nodes. Maintaining ten data centers and cloud infrastructure for support operations related to security, access control, CCTV systems..."
    },
    { "title": "Technical Support @ New Star",
      "start": "01/2004", 
      "end": "07/2007", 
      "desc": "Prevent and corrective maintenance of electronic roulette and video poker machines. Customer relationship and accounting reports"
    }
  ],
  "edu": [
    { "title": "Technical High school",
      "start": "01/1999", 
      "end": "12/2005", 
      "desc": "Escuela 4-111 Pablo Nogues - Mendoza, Argentina"
    }
  ],
  "details": {
    "email": "lourencocristian@gmail.com",
    "qr": "QR.png"
  },
  "lang": [
    {"name": "Spanish", "level": 100}, 
    {"name": "English", "level": 70}
  ],
  "skills": [
    {"name": "Managing", "level": 90},
    {"name": "Project Management", "level": 90},
    {"name": "Database design", "level": 90}, 
    {"name": "Database tunning", "level": 90},
    {"name": "DevOps", "level": 70}
  ],
  "links": [
    {"link": "https://www.linkedin.com/in/gabriel-lourenco/", "icon": "fa-linkedin-square"},
    {"link": "https://wa.me/5218116697719", "icon": "fa-whatsapp"},
    {"link": "https://gitlab.com/lourencocristian", "icon": "fa-gitlab"}
  ]
}
